product\images\WebServlet.class
product\web\LoginAdmin.class
product\com\Ecommerce.class
product\dao\AdminDao.class
product\web\Doput.class
product\com\Cart.class
product\dao\UserDao.class
product\web\RegistrationAdmin.class
product\web\DeleteCart.class
product\images\Addimage1.class
product\dao\EcommerceDao.class
product\com\Users.class
product\web\DoDelete.class
product\web\DoposT.class
product\web\Login.class
product\images\Accessimage2.class
product\dao\CartDao.class
product\web\AddCart.class
product\web\Registration.class
product\com\Admin.class
product\web\GetEC.class
